//----------------------------------------------------------------------------
// Filename                     
// Platform                     
// Author                       
// Current version                 
// Date                         
//----------------------------------------------------------------------------

// Includes ------------------------------------------------------------------
// Declarations & define -----------------------------------------------------
// Macro ---------------------------------------------------------------------
// Variables -----------------------------------------------------------------
// Function prototypes -------------------------------------------------------
// Functions -----------------------------------------------------------------

//----------------------------------------------------------------------------
// Function      
// Description   
// Parameters    
// RetVal        
//----------------------------------------------------------------------------